<?xml version="1.0" encoding="UTF-8" standalone="no"?>
<!-- Created with Inkscape (http://www.inkscape.org/) -->

<svg
   xmlns:dc="http://purl.org/dc/elements/1.1/"
   xmlns:cc="http://creativecommons.org/ns#"
   xmlns:rdf="http://www.w3.org/1999/02/22-rdf-syntax-ns#"
   xmlns:svg="http://www.w3.org/2000/svg"
   xmlns="http://www.w3.org/2000/svg"
   xmlns:sodipodi="http://sodipodi.sourceforge.net/DTD/sodipodi-0.dtd"
   xmlns:inkscape="http://www.inkscape.org/namespaces/inkscape"
   width="38.487499mm"
   height="43.387115mm"
   viewBox="0 0 38.487499 43.387116"
   version="1.1"
   id="svg4570"
   inkscape:version="0.92.1 r15371"
   sodipodi:docname="icono.svg">
  <defs
     id="defs4564" />
  <sodipodi:namedview
     id="base"
     pagecolor="#ffffff"
     bordercolor="#666666"
     borderopacity="1.0"
     inkscape:pageopacity="0.0"
     inkscape:pageshadow="2"
     inkscape:zoom="1.979899"
     inkscape:cx="-16.746122"
     inkscape:cy="94.00167"
     inkscape:document-units="mm"
     inkscape:current-layer="layer1"
     showgrid="false"
     fit-margin-top="0"
     fit-margin-left="0"
     fit-margin-right="0"
     fit-margin-bottom="0"
     inkscape:window-width="1536"
     inkscape:window-height="801"
     inkscape:window-x="-8"
     inkscape:window-y="-8"
     inkscape:window-maximized="1" />
  <metadata
     id="metadata4567">
    <rdf:RDF>
      <cc:Work
         rdf:about="">
        <dc:format>image/svg+xml</dc:format>
        <dc:type
           rdf:resource="http://purl.org/dc/dcmitype/StillImage" />
        <dc:title></dc:title>
      </cc:Work>
    </rdf:RDF>
  </metadata>
  <g
     inkscape:label="Capa 1"
     inkscape:groupmode="layer"
     id="layer1"
     transform="translate(-8.5923588,-118.38445)">
    <path
       style="fill:#ffffff;stroke:#000000;stroke-width:0.96499997;stroke-linecap:butt;stroke-linejoin:miter;stroke-miterlimit:10;stroke-dasharray:none;stroke-opacity:1"
       d="m 26.778935,118.86767 c -7.349138,0.0692 -13.70571,5.07247 -15.471925,9.3586 -1.8538933,4.4989 -2.7588556,8.79682 -1.9202957,16.36179 0.5520848,6.53127 2.5402577,8.45594 4.2901777,11.14402 l 3.710367,4.91856 c 0.636124,0.51588 1.373474,0.90587 2.817916,0.41135 l 10.689788,-1.87947 c 0.375398,-0.42619 0.595077,-0.22852 1.152384,-1.38235 l 0.07648,-6.99027 -4.532024,-5.60741 13.058634,2.45825 c 0.732507,-0.0111 1.521339,-0.24877 2.457731,-1.07539 l 3.303159,-4.07158 c 0.279857,-1.5592 0.200879,-2.04209 0.077,-2.99568 l -2.842202,-14.2875 -2.458249,1.07538 c -4.579141,-5.49958 -9.697953,-7.48265 -14.408938,-7.4383 z m 0.40876,2.53007 c 4.348057,0.0448 9.088781,1.99869 12.848312,7.59696 l 2.227252,-1.30587 1.997294,10.98435 -13.749546,-3.61012 3.072162,-2.53473 c -5.702837,-8.2166 -18.244672,-1.77274 -13.135115,7.60419 l 7.14375,9.14104 -8.372615,1.45986 -4.455542,-5.60792 c -3.315097,-5.05011 -4.7775605,-11.86298 1.152384,-19.05 1.920161,-2.32722 6.343866,-4.72847 11.271664,-4.67776 z"
       id="path4550"
       inkscape:connector-curvature="0" />
  </g>
</svg>
