<?xml version="1.0" encoding="UTF-8" standalone="no"?>
<!-- Created with Inkscape (http://www.inkscape.org/) -->

<svg
   xmlns:dc="http://purl.org/dc/elements/1.1/"
   xmlns:cc="http://creativecommons.org/ns#"
   xmlns:rdf="http://www.w3.org/1999/02/22-rdf-syntax-ns#"
   xmlns:svg="http://www.w3.org/2000/svg"
   xmlns="http://www.w3.org/2000/svg"
   xmlns:sodipodi="http://sodipodi.sourceforge.net/DTD/sodipodi-0.dtd"
   xmlns:inkscape="http://www.inkscape.org/namespaces/inkscape"
   width="27.991377mm"
   height="47.48666mm"
   viewBox="0 0 27.991377 47.48666"
   version="1.1"
   id="svg8"
   inkscape:version="0.92.1 r15371"
   sodipodi:docname="cuiser.svg"
   inkscape:export-filename="C:\boxes\dev\codigitar-web\MATERIALES-WEB\cuiser.png"
   inkscape:export-xdpi="112.03"
   inkscape:export-ydpi="112.03">
  <defs
     id="defs2" />
  <sodipodi:namedview
     id="base"
     pagecolor="#ffffff"
     bordercolor="#666666"
     borderopacity="1.0"
     inkscape:pageopacity="0.0"
     inkscape:pageshadow="2"
     inkscape:zoom="1.979899"
     inkscape:cx="49.499265"
     inkscape:cy="78.381823"
     inkscape:document-units="mm"
     inkscape:current-layer="layer1"
     showgrid="false"
     inkscape:snap-global="false"
     fit-margin-top="0"
     fit-margin-left="0"
     fit-margin-right="0"
     fit-margin-bottom="0"
     inkscape:window-width="1536"
     inkscape:window-height="801"
     inkscape:window-x="-8"
     inkscape:window-y="-8"
     inkscape:window-maximized="1" />
  <metadata
     id="metadata5">
    <rdf:RDF>
      <cc:Work
         rdf:about="">
        <dc:format>image/svg+xml</dc:format>
        <dc:type
           rdf:resource="http://purl.org/dc/dcmitype/StillImage" />
        <dc:title></dc:title>
      </cc:Work>
    </rdf:RDF>
  </metadata>
  <g
     inkscape:label="Capa 1"
     inkscape:groupmode="layer"
     id="layer1"
     transform="translate(-24.77368,-28.679131)">
    <rect
       ry="1.0022607"
       y="53.025364"
       x="25.31259"
       height="5.5711336"
       width="5.5031934"
       id="rect4605"
       style="opacity:1;vector-effect:none;fill:#ffffff;fill-opacity:1;stroke:#000000;stroke-width:1.07781971;stroke-linecap:butt;stroke-linejoin:miter;stroke-miterlimit:4;stroke-dasharray:none;stroke-dashoffset:0;stroke-opacity:1;marker:none" />
    <rect
       style="opacity:1;vector-effect:none;fill:#ffffff;fill-opacity:1;stroke:#000000;stroke-width:1.07781971;stroke-linecap:butt;stroke-linejoin:miter;stroke-miterlimit:4;stroke-dasharray:none;stroke-dashoffset:0;stroke-opacity:1;marker:none"
       id="rect4607"
       width="5.5031934"
       height="5.5711336"
       x="25.31259"
       y="61.492039"
       ry="1.0022607" />
    <rect
       ry="1.0022607"
       y="70.025528"
       x="25.31259"
       height="5.5711336"
       width="5.5031934"
       id="rect4609"
       style="opacity:1;vector-effect:none;fill:#ffffff;fill-opacity:1;stroke:#000000;stroke-width:1.07781971;stroke-linecap:butt;stroke-linejoin:miter;stroke-miterlimit:4;stroke-dasharray:none;stroke-dashoffset:0;stroke-opacity:1;marker:none" />
    <rect
       style="opacity:1;vector-effect:none;fill:#ffffff;fill-opacity:1;stroke:#000000;stroke-width:1.07781971;stroke-linecap:butt;stroke-linejoin:miter;stroke-miterlimit:4;stroke-dasharray:none;stroke-dashoffset:0;stroke-opacity:1;marker:none"
       id="rect4581"
       width="5.5031934"
       height="5.5711336"
       x="25.31259"
       y="44.029526"
       ry="1.0022607" />
    <path
       style="fill:none;stroke:#000000;stroke-width:1.05104804px;stroke-linecap:butt;stroke-linejoin:miter;stroke-opacity:1"
       d="M 33.585127,46.466664 V 49.79775 H 52.239533 V 45.854831"
       id="path4585"
       inkscape:connector-curvature="0" />
    <path
       inkscape:connector-curvature="0"
       id="path4589"
       d="m 33.585127,55.080837 v 3.331086 h 18.654406 v -3.942919"
       style="fill:none;stroke:#000000;stroke-width:1.05104804px;stroke-linecap:butt;stroke-linejoin:miter;stroke-opacity:1" />
    <path
       style="fill:none;stroke:#000000;stroke-width:1.05104804px;stroke-linecap:butt;stroke-linejoin:miter;stroke-opacity:1"
       d="m 33.585127,63.695009 v 3.331087 h 18.654406 v -3.94292"
       id="path4593"
       inkscape:connector-curvature="0" />
    <path
       inkscape:connector-curvature="0"
       id="path4597"
       d="m 33.585127,72.309182 v 3.331086 h 18.654406 v -3.942919"
       style="fill:none;stroke:#000000;stroke-width:1.05104804px;stroke-linecap:butt;stroke-linejoin:miter;stroke-opacity:1" />
    <g
       aria-label="?"
       style="font-style:normal;font-variant:normal;font-weight:normal;font-stretch:normal;font-size:14.11111069px;line-height:1.25;font-family:Arial;-inkscape-font-specification:Arial;letter-spacing:0px;word-spacing:0px;fill:#000000;fill-opacity:1;stroke:#000000;stroke-width:0.26499999;stroke-miterlimit:4;stroke-dasharray:none"
       id="text4494"
       transform="matrix(4.0672444,0,0,4.0672444,-75.986929,-233.63065)">
      <path
         d="m 27.573698,72.411658 c -0.0046,-0.165364 -0.0069,-0.289387 -0.0069,-0.37207 0,-0.486907 0.0689,-0.907208 0.206706,-1.260905 0.101056,-0.266421 0.264124,-0.535138 0.489204,-0.806152 0.165364,-0.197519 0.461642,-0.48461 0.888834,-0.861274 0.431785,-0.381257 0.711986,-0.684426 0.840603,-0.909505 0.128617,-0.225079 0.192926,-0.47083 0.192926,-0.737251 0,-0.482313 -0.188332,-0.904912 -0.564996,-1.267795 -0.376663,-0.367477 -0.838306,-0.551215 -1.384928,-0.551215 -0.528248,0 -0.96922,0.165365 -1.322917,0.496094 -0.353696,0.330729 -0.562042,0.712643 -0.672285,1.415442 h -1.298309 c 0.114836,-0.94166 0.454752,-1.679566 1.019748,-2.180253 0.569589,-0.500687 1.32062,-0.751031 2.253092,-0.751031 0.987594,0 1.775373,0.268717 2.363336,0.806152 0.587963,0.537435 0.881944,1.18741 0.881944,1.949924 0,0.440973 -0.103353,0.847494 -0.310058,1.219564 -0.206706,0.37207 -0.610931,0.824526 -1.212674,1.357368 -0.404225,0.358289 -0.668349,0.622413 -0.792372,0.792371 -0.124023,0.169959 -0.215893,0.365181 -0.275608,0.585667 -0.05971,0.220486 -0.09416,0.578776 -0.103352,1.074869 z"
         style="fill:#000000;stroke:#000000;stroke-width:0.26499999;stroke-miterlimit:4;stroke-dasharray:none"
         id="path4496"
         inkscape:connector-curvature="0"
         sodipodi:nodetypes="csccccscsscccscscccccc" />
    </g>
    <ellipse
       style="opacity:1;vector-effect:none;fill:#ffffff;fill-opacity:1;stroke:#000000;stroke-width:0.28413111;stroke-linecap:butt;stroke-linejoin:miter;stroke-miterlimit:4;stroke-dasharray:none;stroke-dashoffset:0;stroke-opacity:1;marker:none"
       id="path4603"
       cx="38.853294"
       cy="66.743782"
       rx="2.2110445"
       ry="2.3764091" />
    <g
       id="g4563"
       transform="matrix(0.11560533,0.0018539,-0.0018539,0.11560533,33.294082,62.590892)">
      <g
         id="g4507">
	<path
   id="path4505"
   d="M 48.855,0 C 29.021,0 12.883,16.138 12.883,35.974 c 0,5.174 1.059,10.114 3.146,14.684 8.994,19.681 26.238,40.46 31.31,46.359 0.38,0.441 0.934,0.695 1.517,0.695 0.583,0 1.137,-0.254 1.517,-0.695 5.07,-5.898 22.314,-26.676 31.311,-46.359 2.088,-4.57 3.146,-9.51 3.146,-14.684 C 84.828,16.138 68.69,0 48.855,0 Z m 0,54.659 c -10.303,0 -18.686,-8.383 -18.686,-18.686 0,-10.304 8.383,-18.687 18.686,-18.687 10.303,0 18.686,8.383 18.686,18.687 0.001,10.303 -8.382,18.686 -18.686,18.686 z"
   inkscape:connector-curvature="0" />

</g>
      <g
         id="g4509">
</g>
      <g
         id="g4511">
</g>
      <g
         id="g4513">
</g>
      <g
         id="g4515">
</g>
      <g
         id="g4517">
</g>
      <g
         id="g4519">
</g>
      <g
         id="g4521">
</g>
      <g
         id="g4523">
</g>
      <g
         id="g4525">
</g>
      <g
         id="g4527">
</g>
      <g
         id="g4529">
</g>
      <g
         id="g4531">
</g>
      <g
         id="g4533">
</g>
      <g
         id="g4535">
</g>
      <g
         id="g4537">
</g>
    </g>
    <path
       style="fill:none;stroke:#000000;stroke-width:1.07612503px;stroke-linecap:round;stroke-linejoin:round;stroke-opacity:1"
       d="m 26.80728,55.443559 0.951169,1.698514 4.14438,-5.774951"
       id="path4599"
       inkscape:connector-curvature="0" />
    <path
       inkscape:connector-curvature="0"
       id="path4611"
       d="m 26.80728,72.376894 0.951169,1.698514 4.14438,-5.774951"
       style="fill:none;stroke:#000000;stroke-width:1.07612503px;stroke-linecap:round;stroke-linejoin:round;stroke-opacity:1" />
  </g>
</svg>
