<?xml version="1.0" encoding="UTF-8" standalone="no"?>
<svg
   xmlns:dc="http://purl.org/dc/elements/1.1/"
   xmlns:cc="http://creativecommons.org/ns#"
   xmlns:rdf="http://www.w3.org/1999/02/22-rdf-syntax-ns#"
   xmlns:svg="http://www.w3.org/2000/svg"
   xmlns="http://www.w3.org/2000/svg"
   xmlns:sodipodi="http://sodipodi.sourceforge.net/DTD/sodipodi-0.dtd"
   xmlns:inkscape="http://www.inkscape.org/namespaces/inkscape"
   height="393.979"
   version="1.1"
   viewBox="0 0 459.99799 393.979"
   width="459.99799"
   xml:space="preserve"
   id="svg7849"
   sodipodi:docname="vuejs.svg"
   inkscape:version="0.92.1 r15371"><metadata
     id="metadata7855"><rdf:RDF><cc:Work
         rdf:about=""><dc:format>image/svg+xml</dc:format><dc:type
           rdf:resource="http://purl.org/dc/dcmitype/StillImage" /><dc:title></dc:title></cc:Work></rdf:RDF></metadata><defs
     id="defs7853" /><sodipodi:namedview
     pagecolor="#ffffff"
     bordercolor="#666666"
     borderopacity="1"
     objecttolerance="10"
     gridtolerance="10"
     guidetolerance="10"
     inkscape:pageopacity="0"
     inkscape:pageshadow="2"
     inkscape:window-width="1257"
     inkscape:window-height="601"
     id="namedview7851"
     showgrid="false"
     fit-margin-top="0"
     fit-margin-left="0"
     fit-margin-right="0"
     fit-margin-bottom="0"
     inkscape:zoom="0.4609375"
     inkscape:cx="-28.170492"
     inkscape:cy="196.99"
     inkscape:window-x="0"
     inkscape:window-y="0"
     inkscape:window-maximized="0"
     inkscape:current-layer="svg7849" /><g
     id="comp_x5F_367-vuejs"
     style="fill:#ffffff"
     transform="translate(-26.001,-59.011)"><g
       id="g7845"
       style="fill:#ffffff"><path
         d="M 392.46,59.011 H 313.5 L 256.001,149.984 206.716,59.011 H 26.001 l 230,393.979 L 485.999,59.011 Z M 83.192,91.867 h 55.24 L 256,295.378 373.464,91.867 h 55.241 l -172.704,295.92 z"
         id="path7843"
         style="fill:#ffffff"
         inkscape:connector-curvature="0" /></g></g><g
     id="Layer_1"
     transform="translate(-26.001,-59.011)" /></svg>